sp: 3ffefea0 end: 3fff0090 offset: 01b0
3fff0050:  0fffffff 40201255 4020124f 402073f8
3fff0060:  00000000 00000000 3ffeeaac 40201285
3fff0070:  3fffdad0 00000000 3ffeeb9c 40208c48
3fff0080:  feefeffe feefeffe 3ffe8550 40100561
